[gd_scene load_steps=7 format=1]

[ext_resource path="res://ressources/drone/Drone.gd" type="Script" id=1]
[ext_resource path="res://assets/DroneSprite.tscn" type="PackedScene" id=2]
[ext_resource path="res://ressources/songs/Bullet.ogg" type="AudioStream" id=3]
[ext_resource path="res://ressources/songs/CANCER.ogg" type="AudioStream" id=4]
[ext_resource path="res://ressources/songs/missile_travel_time.ogg" type="AudioStream" id=5]

[sub_resource type="RectangleShape2D" id=1]

custom_solver_bias = 0.0
extents = Vector2( 165, 165 )

[node name="Drone" type="KinematicBody2D" groups=[ "Drone" ]]

transform/scale = Vector2( 0.4, 0.4 )
z/z = 1
input/pickable = false
shapes/0/shape = SubResource( 1 )
shapes/0/transform = Matrix32( 1, 0, 0, 1, 0, 0 )
shapes/0/trigger = false
collision/layers = 1
collision/mask = 1
collision/margin = 0.08
script/script = ExtResource( 1 )

[node name="camDrone" type="Camera2D" parent="."]

z/z = 20
anchor_mode = 1
rotating = false
current = true
zoom = Vector2( 1, 1 )
limit/left = -10000000
limit/top = -10000000
limit/right = 10000000
limit/bottom = 10000000
drag_margin/h_enabled = true
drag_margin/v_enabled = true
smoothing/enable = false
smoothing/speed = 5.0
drag_margin/left = 0.0
drag_margin/top = 0.0
drag_margin/right = 0.0
drag_margin/bottom = 0.0

[node name="CollisionShape2D" type="CollisionShape2D" parent="."]

shape = SubResource( 1 )
trigger = false
_update_shape_index = 0

[node name="drone" parent="." instance=ExtResource( 2 )]

transform/scale = Vector2( 0.2, 0.2 )

[node name="songTir" type="StreamPlayer" parent="."]

stream/stream = ExtResource( 3 )
stream/play = false
stream/loop = false
stream/volume_db = -8.0
stream/autoplay = false
stream/paused = false
stream/loop_restart_time = 0.0
stream/buffering_ms = 500

[node name="Schauffe" type="StreamPlayer" parent="."]

stream/stream = ExtResource( 4 )
stream/play = false
stream/loop = false
stream/volume_db = 0.0
stream/autoplay = false
stream/paused = false
stream/loop_restart_time = 0.0
stream/buffering_ms = 500

[node name="songBomb" type="StreamPlayer" parent="."]

stream/stream = ExtResource( 5 )
stream/play = false
stream/loop = false
stream/volume_db = 8.0
stream/autoplay = false
stream/paused = false
stream/loop_restart_time = 0.0
stream/buffering_ms = 500


