[gd_scene load_steps=3 format=1]

[ext_resource path="res://ressources/missil/missile.tex" type="Texture" id=1]

[sub_resource type="ColorRamp" id=1]

offsets = FloatArray( 0.128655, 0.473684, 0.660819, 1 )
colors = ColorArray( 0.300781, 0.0345869, 0.00704956, 1, 0.914063, 0.464396, 0.0285645, 1, 0.960938, 0.820762, 0.0638123, 1, 0.175781, 0.173303, 0.153122, 1 )

[node name="Sprite" type="Sprite"]

texture = ExtResource( 1 )

[node name="Particles2D" type="Particles2D" parent="."]

transform/pos = Vector2( -189.687, 228.74 )
z/z = -1
z/relative = false
config/amount = 60
config/lifetime = 3.0
params/direction = 324.0
params/spread = 26.78
params/linear_velocity = 177.7
params/spin_velocity = 5.0
params/orbit_velocity = 0.0
params/gravity_direction = 0.0
params/gravity_strength = 9.8
params/radial_accel = 0.0
params/tangential_accel = 0.0
params/damping = 17.0
params/initial_angle = 170.0
params/initial_size = 15.0
params/final_size = 110.0
params/hue_variation = 0.0
params/anim_speed_scale = 1.0
params/anim_initial_pos = 0.0
color/color_ramp = SubResource( 1 )


