[gd_scene load_steps=3 format=1]

[ext_resource path="res://ressources/mouse/custom_cursor.gd" type="Script" id=1]
[ext_resource path="res://ressources/mouse/aim.tex" type="Texture" id=2]

[node name="Mouse" type="Node2D"]

script/script = ExtResource( 1 )

[node name="Aim" type="Sprite" parent="."]

texture = ExtResource( 2 )


