[gd_scene load_steps=3 format=1]

[ext_resource path="res://ressources/civilian/homme.ss.tex" type="Texture" id=1]

[sub_resource type="Animation" id=1]

resource/name = "marche"
length = 0.34
loop = true
step = 0.17
tracks/0/type = "value"
tracks/0/path = NodePath(".:frame")
tracks/0/interp = 1
tracks/0/imported = false
tracks/0/keys = { "times":FloatArray( 0, 0.17 ), "transitions":FloatArray( 1, 1 ), "update":1, "values":[ 1, 0 ] }

[node name="burka" type="Sprite"]

transform/scale = Vector2( 0.1, 0.1 )
texture = ExtResource( 1 )
hframes = 2

[node name="marche" type="AnimationPlayer" parent="."]

playback/process_mode = 1
playback/default_blend_time = 0.0
root/root = NodePath("..")
anims/marche = SubResource( 1 )
playback/active = true
playback/speed = 1.0
blend_times = [  ]
autoplay = ""


