[gd_resource type="Animation" load_steps=3 format=1]

[ext_resource path="res://ressources/glitch/glicth2.tex" type="Texture" id=1]
[ext_resource path="res://ressources/glitch/glicth4.tex" type="Texture" id=2]

[resource]

resource/name = "sub1"
length = 0.3
loop = false
step = 0.04
tracks/0/type = "value"
tracks/0/path = NodePath(".:visibility/visible")
tracks/0/interp = 1
tracks/0/imported = false
tracks/0/keys = { "times":FloatArray( 0, 0.04, 0.2 ), "transitions":FloatArray( 1, 1, 1 ), "update":1, "values":[ false, true, false ] }
tracks/1/type = "value"
tracks/1/path = NodePath(".:frame")
tracks/1/interp = 1
tracks/1/imported = false
tracks/1/keys = { "times":FloatArray( 0.04, 0.08, 0.12, 0.16 ), "transitions":FloatArray( 1, 1, 1, 1 ), "update":1, "values":[ 0, 1, 2, 3 ] }
tracks/2/type = "value"
tracks/2/path = NodePath("../Sprite 2:visibility/visible")
tracks/2/interp = 1
tracks/2/imported = false
tracks/2/keys = { "times":FloatArray( 0, 0.24 ), "transitions":FloatArray( 1, 1 ), "update":1, "values":[ true, false ] }
tracks/3/type = "value"
tracks/3/path = NodePath("../Sprite 2:texture")
tracks/3/interp = 1
tracks/3/imported = false
tracks/3/keys = { "times":FloatArray( 0, 0.2 ), "transitions":FloatArray( 1, 1 ), "update":1, "values":[ ExtResource( 1 ), ExtResource( 2 ) ] }
tracks/4/type = "method"
tracks/4/path = NodePath(".")
tracks/4/interp = 1
tracks/4/imported = false
tracks/4/keys = { "times":FloatArray( 0.3 ), "transitions":FloatArray( 1 ), "values":[ { "args":[  ], "method":"finish" } ] }

