[gd_scene load_steps=3 format=1]

[ext_resource path="res://ressources/mouse/customMouse.gd" type="Script" id=1]
[ext_resource path="res://ressources/City.tscn" type="PackedScene" id=2]



[node name="Node" type="Node"]

script/script = ExtResource( 1 )

[node name="City" parent="." instance=ExtResource( 2 )]


