[gd_scene load_steps=2 format=1]

[ext_resource path="res://ressources/water/waterdoneright.tex" type="Texture" id=1]

[node name="water" type="Sprite"]

transform/rot = 1.17936e-06
texture = ExtResource( 1 )


