[gd_scene load_steps=2 format=1]

[ext_resource path="res://ressources/water/desert water turn.tex" type="Texture" id=1]

[node name="water_corner" type="Sprite"]

transform/rot = 0.454549
texture = ExtResource( 1 )


