[gd_scene load_steps=6 format=1]

[ext_resource path="res://ressources/subliminal/subliminal.gd" type="Script" id=1]
[ext_resource path="res://ressources/subliminal/Sub3_4f.ss.tex" type="Texture" id=2]
[ext_resource path="res://ressources/glitch/glicth1.tex" type="Texture" id=3]
[ext_resource path="res://ressources/glitch/glicth4.tex" type="Texture" id=4]

[sub_resource type="Animation" id=1]

resource/name = "sub3"
length = 0.3
loop = false
step = 0.04
tracks/0/type = "value"
tracks/0/path = NodePath("Sprite 2:visibility/visible")
tracks/0/interp = 1
tracks/0/imported = false
tracks/0/keys = { "times":FloatArray( 0, 0.04, 0.28 ), "transitions":FloatArray( 1, 1, 1 ), "update":1, "values":[ true, false, true ] }
tracks/1/type = "value"
tracks/1/path = NodePath("Sprite 2:texture")
tracks/1/interp = 1
tracks/1/imported = false
tracks/1/keys = { "times":FloatArray( 0, 0.28 ), "transitions":FloatArray( 1, 1 ), "update":1, "values":[ ExtResource( 3 ), ExtResource( 4 ) ] }
tracks/2/type = "value"
tracks/2/path = NodePath("Sprite:frame")
tracks/2/interp = 1
tracks/2/imported = false
tracks/2/keys = { "times":FloatArray( 0.04, 0.12, 0.16, 0.2 ), "transitions":FloatArray( 1, 1, 1, 1 ), "update":1, "values":[ 0, 1, 2, 3 ] }
tracks/3/type = "method"
tracks/3/path = NodePath(".")
tracks/3/interp = 1
tracks/3/imported = false
tracks/3/keys = { "times":FloatArray( 0.3 ), "transitions":FloatArray( 1 ), "values":[ { "args":[ null ], "method":"finish" } ] }

[node name="Control" type="Control"]

focus/ignore_mouse = false
focus/stop_mouse = true
size_flags/horizontal = 2
size_flags/vertical = 2
margin/left = 0.0
margin/top = 0.0
margin/right = 40.0
margin/bottom = 40.0
script/script = ExtResource( 1 )

[node name="Sprite" type="Sprite" parent="."]

transform/scale = Vector2( 1.333, 1.54 )
texture = ExtResource( 2 )
centered = false
hframes = 4

[node name="Sprite 2" type="Sprite" parent="."]

texture = ExtResource( 3 )
centered = false

[node name="AnimationPlayer" type="AnimationPlayer" parent="."]

playback/process_mode = 1
playback/default_blend_time = 0.0
root/root = NodePath("..")
anims/sub3 = SubResource( 1 )
playback/active = true
playback/speed = 1.0
blend_times = [  ]
autoplay = "sub3"


