[gd_resource type="TileSet" load_steps=42 format=1]

[ext_resource path="res://ressources/ground/texture desert 2.tex" type="Texture" id=1]
[ext_resource path="res://ressources/ground/road straigth.tex" type="Texture" id=2]
[ext_resource path="res://ressources/water/waterbend0001.tex" type="Texture" id=3]
[ext_resource path="res://ressources/house/bat_det1.1.tex" type="Texture" id=4]
[ext_resource path="res://ressources/house/bat_det2.1.tex" type="Texture" id=5]
[ext_resource path="res://ressources/house/bat_det3.1.tex" type="Texture" id=6]
[ext_resource path="res://ressources/house/bat_neuf1.1.tex" type="Texture" id=7]
[ext_resource path="res://ressources/house/bat_neuf2.1.tex" type="Texture" id=8]
[ext_resource path="res://ressources/house/bat_neuf3.1.tex" type="Texture" id=9]
[ext_resource path="res://ressources/house/bat_det1.2.tex" type="Texture" id=10]
[ext_resource path="res://ressources/house/bat_det2.2.tex" type="Texture" id=11]
[ext_resource path="res://ressources/house/bat_det3.2.tex" type="Texture" id=12]
[ext_resource path="res://ressources/ground/road turn desert.tex" type="Texture" id=13]
[ext_resource path="res://ressources/house/bat_neuf1.2.tex" type="Texture" id=14]
[ext_resource path="res://ressources/house/bat_neuf2.2.tex" type="Texture" id=15]
[ext_resource path="res://ressources/house/bat_neuf3.2.tex" type="Texture" id=16]
[ext_resource path="res://ressources/house/Sans titre.tex" type="Texture" id=17]
[ext_resource path="res://ressources/house/militaireV1.tex" type="Texture" id=18]
[ext_resource path="res://ressources/house/militaireV2.tex" type="Texture" id=19]
[ext_resource path="res://ressources/house/militaireH2.tex" type="Texture" id=20]
[ext_resource path="res://ressources/water/waterdoneright.tex" type="Texture" id=21]
[ext_resource path="res://ressources/water/desert water turn.tex" type="Texture" id=22]
[ext_resource path="res://ressources/ground/texture goudron.tex" type="Texture" id=23]
[ext_resource path="res://ressources/water/goudron water turn.tex" type="Texture" id=24]
[ext_resource path="res://ressources/ground/heliport.tex" type="Texture" id=25]
[ext_resource path="res://ressources/ground/rail.tex" type="Texture" id=26]
[ext_resource path="res://ressources/ground/sand banned.tex" type="Texture" id=27]
[ext_resource path="res://ressources/ground/goudron giant.tex" type="Texture" id=28]
[ext_resource path="res://ressources/ground/road turn goudron.tex" type="Texture" id=29]
[ext_resource path="res://ressources/ground/croisement X.tex" type="Texture" id=30]
[ext_resource path="res://ressources/ground/croisement T.tex" type="Texture" id=31]

[sub_resource type="ConvexPolygonShape2D" id=1]

custom_solver_bias = 0.0
points = Vector2Array( -13.051, -8.24498, 12.9596, -8.15932, 12.8263, 8.55723, -13.1843, 8.47156 )

[sub_resource type="ConvexPolygonShape2D" id=27]

custom_solver_bias = 0.0
points = Vector2Array( -193.463, -215.442, 193.416, -215.533, 193.477, 215.581, -193.634, 215.55 )

[sub_resource type="ConvexPolygonShape2D" id=2]

custom_solver_bias = 0.0
points = Vector2Array( -193.463, -215.442, 193.416, -215.533, 193.477, 215.581, -193.634, 215.55 )

[sub_resource type="ConvexPolygonShape2D" id=28]

custom_solver_bias = 0.0
points = Vector2Array( -190.657, -102.526, 190.316, -102.476, 190.495, 102.494, -190.603, 102.429 )

[sub_resource type="ConvexPolygonShape2D" id=29]

custom_solver_bias = 0.0
points = Vector2Array( -213.594, -99.0735, 212.688, -100.983, 213.482, 99.1679, -212.593, 100.75 )

[sub_resource type="ConvexPolygonShape2D" id=23]

custom_solver_bias = 0.0
points = Vector2Array( -26.0563, -8.28781, 25.9649, -8.11648, 25.8316, 8.60006, -26.1895, 8.42873 )

[sub_resource type="ConvexPolygonShape2D" id=24]

custom_solver_bias = 0.0
points = Vector2Array( -26.0159, -8.50141, -26.177, -16.5265, 25.8473, -16.5956, 25.9548, 16.8395 )

[sub_resource type="ConvexPolygonShape2D" id=25]

custom_solver_bias = 0.0
points = Vector2Array( -26.0159, -8.50141, 25.9548, 16.8395, -26.0695, 16.9086 )

[sub_resource type="ConvexPolygonShape2D" id=26]

custom_solver_bias = 0.0
points = Vector2Array( 50.0177, -50.0245, 50.04, 50.0196, -50.0232, 49.995, -50.0283, -49.9331 )

[sub_resource type="ConvexPolygonShape2D" id=8]

custom_solver_bias = 0.0
points = Vector2Array( -13.1165, -8.20189, 12.8944, -8.20189, 12.8944, 8.51487, -13.1165, 8.51487, -13.1165, -8.20189 )

[resource]

0/name = "Sand"
0/texture = ExtResource( 1 )
0/tex_offset = Vector2( 0, 0 )
0/region = Rect2( 0, 0, 100, 100 )
0/occluder_offset = Vector2( 50, 50 )
0/navigation_offset = Vector2( 50, 50 )
0/shape_offset = Vector2( 0, 0 )
0/shapes = [  ]
1/name = "RoadStraight"
1/texture = ExtResource( 2 )
1/tex_offset = Vector2( 0, 0 )
1/region = Rect2( 0, 0, 200, 100 )
1/occluder_offset = Vector2( 100, 50 )
1/navigation_offset = Vector2( 100, 50 )
1/shape_offset = Vector2( 0, 0 )
1/shapes = [  ]
2/name = "RoadTurnSand"
2/texture = ExtResource( 13 )
2/tex_offset = Vector2( 0, 0 )
2/region = Rect2( 0, 0, 200, 200 )
2/occluder_offset = Vector2( 100, 100 )
2/navigation_offset = Vector2( 100, 100 )
2/shape_offset = Vector2( 0, 0 )
2/shapes = [  ]
3/name = "Goudron"
3/texture = ExtResource( 23 )
3/tex_offset = Vector2( 0, 0 )
3/region = Rect2( 0, 0, 100, 100 )
3/occluder_offset = Vector2( 50, 50 )
3/navigation_offset = Vector2( 50, 50 )
3/shape_offset = Vector2( 0, 0 )
3/shapes = [  ]
4/name = "RoadTurnGoudron"
4/texture = ExtResource( 29 )
4/tex_offset = Vector2( 0, 0 )
4/region = Rect2( 0, 0, 200, 200 )
4/occluder_offset = Vector2( 100, 100 )
4/navigation_offset = Vector2( 100, 100 )
4/shape_offset = Vector2( 0, 0 )
4/shapes = [  ]
5/name = "RoadTurnGoudron90"
5/texture = ExtResource( 29 )
5/tex_offset = Vector2( 0, 0 )
5/region = Rect2( 0, 0, 200, 200 )
5/occluder_offset = Vector2( 100, 100 )
5/navigation_offset = Vector2( 100, 100 )
5/shape_offset = Vector2( 0, 0 )
5/shapes = [  ]
6/name = "Obstacle"
6/texture = ExtResource( 1 )
6/tex_offset = Vector2( 0, 0 )
6/region = Rect2( 0, 0, 100, 100 )
6/occluder_offset = Vector2( 50, 50 )
6/navigation_offset = Vector2( 50, 50 )
6/shape_offset = Vector2( 50, 50 )
6/shapes = [ SubResource( 26 ) ]
7/name = "RoadX"
7/texture = ExtResource( 30 )
7/tex_offset = Vector2( 0, 0 )
7/region = Rect2( 0, 0, 200, 200 )
7/occluder_offset = Vector2( 100, 100 )
7/navigation_offset = Vector2( 100, 100 )
7/shape_offset = Vector2( 0, 0 )
7/shapes = [  ]
8/name = "RoadT"
8/texture = ExtResource( 31 )
8/tex_offset = Vector2( 0, 0 )
8/region = Rect2( 0, 0, 200, 200 )
8/occluder_offset = Vector2( 100, 100 )
8/navigation_offset = Vector2( 100, 100 )
8/shape_offset = Vector2( 0, 0 )
8/shapes = [  ]
9/name = "water_corner"
9/texture = ExtResource( 3 )
9/tex_offset = Vector2( 0, 0 )
9/region = Rect2( 0, 0, 100, 100 )
9/occluder_offset = Vector2( 50, 50 )
9/navigation_offset = Vector2( 50, 50 )
9/shape_offset = Vector2( 50, 50 )
9/shapes = [ SubResource( 8 ) ]
10/name = "water"
10/texture = ExtResource( 3 )
10/tex_offset = Vector2( 0, 0 )
10/region = Rect2( 0, 0, 100, 100 )
10/occluder_offset = Vector2( 50, 50 )
10/navigation_offset = Vector2( 50, 50 )
10/shape_offset = Vector2( 50, 50 )
10/shapes = [ SubResource( 1 ) ]
11/name = "HouseSquareSand1"
11/texture = ExtResource( 4 )
11/tex_offset = Vector2( 0, 0 )
11/region = Rect2( 0, 0, 400, 400 )
11/occluder_offset = Vector2( 200, 200 )
11/navigation_offset = Vector2( 200, 200 )
11/shape_offset = Vector2( 200, 200 )
11/shapes = [ SubResource( 27 ) ]
12/name = "HouseSquareSand2"
12/texture = ExtResource( 5 )
12/tex_offset = Vector2( 0, 0 )
12/region = Rect2( 0, 0, 300, 300 )
12/occluder_offset = Vector2( 150, 150 )
12/navigation_offset = Vector2( 150, 150 )
12/shape_offset = Vector2( 150, 150 )
12/shapes = [ SubResource( 27 ) ]
13/name = "HouseSquareSand3"
13/texture = ExtResource( 6 )
13/tex_offset = Vector2( 0, 0 )
13/region = Rect2( 0, 0, 300, 300 )
13/occluder_offset = Vector2( 150, 150 )
13/navigation_offset = Vector2( 150, 150 )
13/shape_offset = Vector2( 150, 150 )
13/shapes = [ SubResource( 27 ) ]
14/name = "HouseSquareSand4"
14/texture = ExtResource( 7 )
14/tex_offset = Vector2( 0, 0 )
14/region = Rect2( 0, 0, 400, 400 )
14/occluder_offset = Vector2( 200, 200 )
14/navigation_offset = Vector2( 200, 200 )
14/shape_offset = Vector2( 200, 200 )
14/shapes = [ SubResource( 27 ) ]
15/name = "HouseSquareSand5"
15/texture = ExtResource( 8 )
15/tex_offset = Vector2( 0, 0 )
15/region = Rect2( 0, 0, 300, 300 )
15/occluder_offset = Vector2( 150, 150 )
15/navigation_offset = Vector2( 150, 150 )
15/shape_offset = Vector2( 150, 150 )
15/shapes = [ SubResource( 27 ) ]
16/name = "HouseSquareSand6"
16/texture = ExtResource( 9 )
16/tex_offset = Vector2( 0, 0 )
16/region = Rect2( 0, 0, 300, 300 )
16/occluder_offset = Vector2( 150, 150 )
16/navigation_offset = Vector2( 150, 150 )
16/shape_offset = Vector2( 150, 150 )
16/shapes = [ SubResource( 27 ) ]
17/name = "HouseSquareGoudron1"
17/texture = ExtResource( 10 )
17/tex_offset = Vector2( 0, 0 )
17/region = Rect2( 0, 0, 400, 400 )
17/occluder_offset = Vector2( 200, 200 )
17/navigation_offset = Vector2( 200, 200 )
17/shape_offset = Vector2( 200, 200 )
17/shapes = [ SubResource( 27 ) ]
18/name = "HouseSquareGoudron2"
18/texture = ExtResource( 11 )
18/tex_offset = Vector2( 0, 0 )
18/region = Rect2( 0, 0, 300, 300 )
18/occluder_offset = Vector2( 150, 150 )
18/navigation_offset = Vector2( 150, 150 )
18/shape_offset = Vector2( 150, 150 )
18/shapes = [ SubResource( 27 ) ]
19/name = "HouseSquareGoudron3"
19/texture = ExtResource( 12 )
19/tex_offset = Vector2( 0, 0 )
19/region = Rect2( 0, 0, 300, 300 )
19/occluder_offset = Vector2( 150, 150 )
19/navigation_offset = Vector2( 150, 150 )
19/shape_offset = Vector2( 150, 150 )
19/shapes = [ SubResource( 27 ) ]
20/name = "HouseSquareGoudron4"
20/texture = ExtResource( 14 )
20/tex_offset = Vector2( 0, 0 )
20/region = Rect2( 0, 0, 400, 400 )
20/occluder_offset = Vector2( 200, 200 )
20/navigation_offset = Vector2( 200, 200 )
20/shape_offset = Vector2( 200, 200 )
20/shapes = [ SubResource( 27 ) ]
21/name = "HouseSquareGoudron5"
21/texture = ExtResource( 15 )
21/tex_offset = Vector2( 0, 0 )
21/region = Rect2( 0, 0, 300, 300 )
21/occluder_offset = Vector2( 150, 150 )
21/navigation_offset = Vector2( 150, 150 )
21/shape_offset = Vector2( 150, 150 )
21/shapes = [ SubResource( 27 ) ]
22/name = "HouseSquareGoudron6"
22/texture = ExtResource( 16 )
22/tex_offset = Vector2( 0, 0 )
22/region = Rect2( 0, 0, 300, 300 )
22/occluder_offset = Vector2( 150, 150 )
22/navigation_offset = Vector2( 150, 150 )
22/shape_offset = Vector2( 150, 150 )
22/shapes = [ SubResource( 27 ) ]
23/name = "HouseLongSand"
23/texture = ExtResource( 17 )
23/tex_offset = Vector2( 0, 0 )
23/region = Rect2( 0, 0, 381, 205 )
23/occluder_offset = Vector2( 190.5, 102.5 )
23/navigation_offset = Vector2( 190.5, 102.5 )
23/shape_offset = Vector2( 190.5, 102.5 )
23/shapes = [ SubResource( 2 ) ]
24/name = "HouseLongSand1"
24/texture = ExtResource( 17 )
24/tex_offset = Vector2( 0, 0 )
24/region = Rect2( 0, 0, 381, 205 )
24/occluder_offset = Vector2( 190.5, 102.5 )
24/navigation_offset = Vector2( 190.5, 102.5 )
24/shape_offset = Vector2( 190.5, 102.5 )
24/shapes = [ SubResource( 28 ) ]
25/name = "HouseLongSand2"
25/texture = ExtResource( 18 )
25/tex_offset = Vector2( 0, 0 )
25/region = Rect2( 0, 0, 200, 400 )
25/occluder_offset = Vector2( 100, 200 )
25/navigation_offset = Vector2( 100, 200 )
25/shape_offset = Vector2( 100, 200 )
25/shapes = [ SubResource( 29 ) ]
26/name = "HouseLongGoudron2"
26/texture = ExtResource( 19 )
26/tex_offset = Vector2( 0, 0 )
26/region = Rect2( 0, 0, 200, 400 )
26/occluder_offset = Vector2( 100, 200 )
26/navigation_offset = Vector2( 100, 200 )
26/shape_offset = Vector2( 100, 200 )
26/shapes = [ SubResource( 29 ) ]
27/name = "HouseLongGoudron1"
27/texture = ExtResource( 20 )
27/tex_offset = Vector2( 0, 0 )
27/region = Rect2( 0, 0, 400, 200 )
27/occluder_offset = Vector2( 200, 100 )
27/navigation_offset = Vector2( 200, 100 )
27/shape_offset = Vector2( 200, 100 )
27/shapes = [ SubResource( 28 ) ]
28/name = "Water"
28/texture = ExtResource( 21 )
28/tex_offset = Vector2( 0, 0 )
28/region = Rect2( 0, 0, 200, 100 )
28/occluder_offset = Vector2( 100, 50 )
28/navigation_offset = Vector2( 100, 50 )
28/shape_offset = Vector2( 0, 0 )
28/shapes = [ SubResource( 23 ) ]
29/name = "WaterTurnSand"
29/texture = ExtResource( 22 )
29/tex_offset = Vector2( 0, 0 )
29/region = Rect2( 0, 0, 200, 200 )
29/occluder_offset = Vector2( 100, 100 )
29/navigation_offset = Vector2( 100, 100 )
29/shape_offset = Vector2( 0, 0 )
29/shapes = [ SubResource( 24 ), SubResource( 25 ) ]
30/name = "WaterTurnGoudron"
30/texture = ExtResource( 24 )
30/tex_offset = Vector2( 0, 0 )
30/region = Rect2( 0, 0, 200, 200 )
30/occluder_offset = Vector2( 100, 100 )
30/navigation_offset = Vector2( 100, 100 )
30/shape_offset = Vector2( 0, 0 )
30/shapes = [ SubResource( 24 ), SubResource( 25 ) ]
31/name = "Heliport"
31/texture = ExtResource( 25 )
31/tex_offset = Vector2( 0, 0 )
31/region = Rect2( 0, 0, 200, 200 )
31/occluder_offset = Vector2( 100, 100 )
31/navigation_offset = Vector2( 100, 100 )
31/shape_offset = Vector2( 0, 0 )
31/shapes = [  ]
32/name = "Rails"
32/texture = ExtResource( 26 )
32/tex_offset = Vector2( 0, 0 )
32/region = Rect2( 0, 0, 100, 100 )
32/occluder_offset = Vector2( 50, 50 )
32/navigation_offset = Vector2( 50, 50 )
32/shape_offset = Vector2( 50, 50 )
32/shapes = [ SubResource( 26 ) ]
33/name = "EndMap"
33/texture = ExtResource( 27 )
33/tex_offset = Vector2( 0, 0 )
33/region = Rect2( 0, 0, 100, 100 )
33/occluder_offset = Vector2( 50, 50 )
33/navigation_offset = Vector2( 50, 50 )
33/shape_offset = Vector2( 50, 50 )
33/shapes = [ SubResource( 26 ) ]
34/name = "GoudronGiant"
34/texture = ExtResource( 28 )
34/tex_offset = Vector2( 0, 0 )
34/region = Rect2( 0, 0, 500, 500 )
34/occluder_offset = Vector2( 250, 250 )
34/navigation_offset = Vector2( 250, 250 )
34/shape_offset = Vector2( 0, 0 )
34/shapes = [  ]

